{
  "version": "v4",
  "repo": "borisyankov/DefinitelyTyped",
  "ref": "master",
  "path": "typings",
  "bundle": "typings/tsd.d.ts",
  "installed": {
    "react/react.d.ts": {
      "commit": "e2af6d0bd5dffabdb363e779c5ab7f47e6ff3423"
    },
    "react/react-dom.d.ts": {
      "commit": "e2af6d0bd5dffabdb363e779c5ab7f47e6ff3423"
    }
  }
}
